#FIG 3.2  Produced by xfig version 3.2.5-alpha5
Landscape
Center
Metric
A4      
100.00
Single
-2
1200 2
2 2 0 1 0 2 50 -1 20 0.000 0 0 -1 0 0 5
	 1305 1170 2700 1170 2700 1845 1305 1845 1305 1170
2 4 0 1 -1 3 50 -1 20 0.000 0 0 7 0 0 5
	 9045 3015 5265 3015 5265 1350 9045 1350 9045 3015
2 4 0 1 -1 3 50 -1 20 0.000 0 0 7 0 0 5
	 8955 7335 5175 7335 5175 5670 8955 5670 8955 7335
2 4 0 1 -1 3 50 -1 20 0.000 0 0 7 0 0 5
	 12735 5760 10080 5760 10080 3555 12735 3555 12735 5760
2 1 0 1 0 7 50 -1 -1 0.000 0 0 -1 1 1 2
	1 1 2.00 90.00 120.00
	1 1 2.00 90.00 120.00
	 2880 1530 5085 2115
2 1 0 1 0 7 50 -1 -1 0.000 0 0 -1 1 1 2
	1 1 2.00 90.00 120.00
	1 1 2.00 90.00 120.00
	 9315 2115 11385 3330
2 1 0 1 0 7 50 -1 -1 0.000 0 0 -1 1 1 2
	1 1 2.00 90.00 120.00
	1 1 2.00 90.00 120.00
	 11205 5985 9225 6795
2 1 0 2 0 7 50 -1 -1 0.000 0 0 -1 1 1 2
	2 0 4.00 180.00 240.00
	2 0 4.00 180.00 240.00
	 1980 4365 1980 6300
2 1 0 2 0 7 50 -1 -1 0.000 0 0 -1 1 1 2
	2 0 4.00 180.00 240.00
	2 0 4.00 180.00 240.00
	 2520 2070 2520 3285
4 0 0 50 -1 18 22 0.0000 4 285 975 1485 1620 client\001
4 0 0 50 -1 18 22 0.0000 4 285 2175 1845 3780 DiskServers\001
4 0 0 50 -1 18 22 0.0000 4 360 2115 1800 6840 Tape Drives\001
4 0 0 50 -1 18 22 0.0000 4 360 2325 5940 6570 Tape Archive\001
4 0 0 50 -1 18 22 0.0000 4 285 1995 6165 2070 Disk Cache\001
4 0 0 50 -1 18 22 0.0000 4 360 1980 6120 2610 ?anage,ent\001
4 0 0 50 -1 18 22 0.0000 4 360 1980 6030 6975 ?anage,ent\001
4 0 0 50 -1 18 22 0.0000 4 285 1530 10575 5040 Services\001
4 0 0 50 -1 18 22 0.0000 4 285 1305 10665 4455 Central\001
